{
  "Gemfile": "0b0ef34a57239868636b26141342423f",
  "LICENSE": "ec703b7743d18b10991bce40a06589e2",
  "README.md": "dd9f1f336553af5cde6ce171e50ca4ad",
  "Rakefile": "158b889261acd98356f6e0f2a031b6b9",
  "examples/init.pp": "0011fa098e7d523c6b3e9d0977c586fe",
  "manifests/init.pp": "c544c1584c39424c8145426b3b4a260c",
  "metadata.json": "dea866bb63e8cff1fac857889ae8163c",
  "spec/classes/init_spec.rb": "c1c2e914f2b677e5e60c9ad2c28ea65e",
  "spec/spec_helper.rb": "0db89c9a486df193c0e40095422e19dc",
  "templates/standalone.epp": "9ea09241b8121d212b3e0f3b2d1c669f",
  "templates/web_only.epp": "7c36e690b856f85f5a7dbe8ae9e78cd2"
}